%YAML 1.1
%TAG !u! tag:unity3d.com,2011:
--- !u!1 &2034984744304944859
GameObject:
  m_ObjectHideFlags: 0
  m_CorrespondingSourceObject: {fileID: 0}
  m_PrefabInstance: {fileID: 0}
  m_PrefabAsset: {fileID: 0}
  serializedVersion: 6
  m_Component:
  - component: {fileID: 2034984744304944858}
  - component: {fileID: 2034984744304944857}
  m_Layer: 0
  m_Name: Object Spawner
  m_TagString: Untagged
  m_Icon: {fileID: -1412012063857583412, guid: 0000000000000000d000000000000000, type: 0}
  m_NavMeshLayer: 0
  m_StaticEditorFlags: 0
  m_IsActive: 1
--- !u!4 &2034984744304944858
Transform:
  m_ObjectHideFlags: 0
  m_CorrespondingSourceObject: {fileID: 0}
  m_PrefabInstance: {fileID: 0}
  m_PrefabAsset: {fileID: 0}
  m_GameObject: {fileID: 2034984744304944859}
  m_LocalRotation: {x: 0, y: 0, z: 0, w: 1}
  m_LocalPosition: {x: 0, y: 1.7, z: 3.1}
  m_LocalScale: {x: 1, y: 1, z: 1}
  m_Children: []
  m_Father: {fileID: 0}
  m_RootOrder: 0
  m_LocalEulerAnglesHint: {x: 0, y: 0, z: 0}
--- !u!114 &2034984744304944857
MonoBehaviour:
  m_ObjectHideFlags: 0
  m_CorrespondingSourceObject: {fileID: 0}
  m_PrefabInstance: {fileID: 0}
  m_PrefabAsset: {fileID: 0}
  m_GameObject: {fileID: 2034984744304944859}
  m_Enabled: 1
  m_EditorHideFlags: 0
  m_Script: {fileID: 11500000, guid: 39297486c18823d409c74aab1271886a, type: 3}
  m_Name: 
  m_EditorClassIdentifier: 
  radius: 20
  objectsToSpawn:
  - {fileID: 0}
  - {fileID: 0}
  - {fileID: 0}
  objectIcons:
  - {fileID: 2800000, guid: 0a9722fb5c54e9d4c8299e01187e57d5, type: 3}
  - {fileID: 2800000, guid: 8888db84fde1a6543b8fec3e9a49734f, type: 3}
  - {fileID: 2800000, guid: 7058dca38a4c2c34fafcdee201ab9430, type: 3}
  iconNames:
  - Sphere Item
  - Cylinder Item
  - Capsule Item
  iconController: {fileID: 0}
  player: {fileID: 0}
