%YAML 1.1
%TAG !u! tag:unity3d.com,2011:
--- !u!114 &11400000
MonoBehaviour:
  m_ObjectHideFlags: 0
  m_CorrespondingSourceObject: {fileID: 0}
  m_PrefabInstance: {fileID: 0}
  m_PrefabAsset: {fileID: 0}
  m_GameObject: {fileID: 0}
  m_Enabled: 1
  m_EditorHideFlags: 0
  m_Script: {fileID: 11500000, guid: 54d21f6ece3b46479f0c328f8c6007e0, type: 3}
  m_Name: Green+Blue
  m_EditorClassIdentifier: 
  colorMode: 3
  topLeft: {r: 0.13333334, g: 1, b: 0.023529412, a: 1}
  topRight: {r: 0.13232973, g: 1, b: 0.023584902, a: 1}
  bottomLeft: {r: 0, g: 0, b: 0, a: 1}
  bottomRight: {r: 0, g: 0, b: 0, a: 1}
